• dietaryindex
…
# only the first day nutrition data
# Use the NHANES example data in 2017-2018 using only the first day nutrition data
HEI2020_NHANES_FPED_unweighted_d1 = HEI2020_NHANES_FPED(FPED_PATH=NHANES_20172018$FPED, NUTRIENT_PATH=NHANES_20172018$NUTRIENT, DEMO_PATH=NHANES_20172018$DEMO)

# set up survey design for NHANES data 2017-2018 day 1
NHANES_20172018_design_d1 = NHANES_20172018$FPED %>%
    filter(!is.na(WTDRD1)) %>%
    ## select the variables needed for the survey design
    select(SEQN, SDMVPSU, SDMVSTRA, WTDRD1)

# Merge the NHANES data with weighting variables with the HEI2020 results
NHANES_20172018_design_d1_HEI2020 = inner_join(HEI2020_NHANES_FPED_unweighted_d1, NHANES_20172018_design_d1, by = "SEQN")
print(NHANES_20172018_design_d1_HEI2020)

## # A tibble: 7,284 × 19
##     SEQN RIDAGEYR HEI2020_ALL HEI2020_TOTALFRT HEI2020_FRT HEI2020_VEG
##    <dbl>    <dbl>       <dbl>            <dbl>       <dbl>       <dbl>
##  1 93704        2        63.5            5           0          3.03  
##  2 93705       66        41.1            0           0          5     
##  3 93706       18        44.5            0           0          1.65  
##  4 93707       13        41.6            0           0          2.41  
##  5 93708       66        58.5            2.45        4.90       5     
##  6 93711       56        67.1            2.13        3.12       5     
##  7 93712       18        69.5            5           5          3.49  
##  8 93713       67        52.9            4.69        5          4.57  
##  9 93714       54        38.6            0.376       0.702      0.638 
## 10 93715       71        40.0            1.55        3.11       0.0706
## # ℹ 7,274 more rows
## # ℹ 13 more variables: HEI2020_GREENNBEAN <dbl>, HEI2020_TOTALPRO <dbl>,
## #   HEI2020_SEAPLANTPRO <dbl>, HEI2020_WHOLEGRAIN <dbl>, HEI2020_DAIRY <dbl>,
## #   HEI2020_FATTYACID <dbl>, HEI2020_REFINEDGRAIN <dbl>, HEI2020_SODIUM <dbl>,
## #   HEI2020_ADDEDSUGAR <dbl>, HEI2020_SATFAT <dbl>, SDMVPSU <dbl>,
## #   SDMVSTRA <dbl>, WTDRD1 <dbl>
…
# set up survey design for NHANES data 2017-2018 day 1 and day 2
## filter out the missing values for the weight variable WTDR2D
NHANES_20172018_design_d1d2 = NHANES_20172018$FPED %>%
    filter(!is.na(WTDR2D)) %>%
    ## select the variables needed for the survey design
    select(SEQN, SDMVPSU, SDMVSTRA, WTDR2D)

# Merge the NHANES data with weighting variables with the HEI2020 results
NHANES_20172018_design_d1d2_HEI2020 = inner_join(HEI2020_NHANES_FPED_unweighted_d1d2, NHANES_20172018_design_d1d2, by = "SEQN")
print(NHANES_20172018_design_d1d2_HEI2020)

## # A tibble: 6,315 × 19
##     SEQN RIDAGEYR HEI2020_ALL HEI2020_TOTALFRT HEI2020_FRT HEI2020_VEG
##    <dbl>    <dbl>       <dbl>            <dbl>       <dbl>       <dbl>
##  1 93704        2        61.7           5            2.5         1.55 
##  2 93705       66        43.0           0.0759       0           3.46 
##  3 93707       13        38.9           0            0           2.09 
##  4 93708       66        49.9           1.22         2.45        3.20 
##  5 93711       56        69.0           3.57         2.85        3.75 
##  6 93712       18        46.4           2.5          2.5         2.42 
##  7 93713       67        55.4           4.84         5           3.47 
##  8 93714       54        36.1           0.321        0.617       1.85 
##  9 93715       71        30.7           0.777        1.55        0.614
## 10 93716       61        65.0           5            5           4.03 
## # ℹ 6,305 more rows
## # ℹ 13 more variables: HEI2020_GREENNBEAN <dbl>, HEI2020_TOTALPRO <dbl>,
## #   HEI2020_SEAPLANTPRO <dbl>, HEI2020_WHOLEGRAIN <dbl>, HEI2020_DAIRY <dbl>,
## #   HEI2020_FATTYACID <dbl>, HEI2020_REFINEDGRAIN <dbl>, HEI2020_SODIUM <dbl>,
## #   HEI2020_ADDEDSUGAR <dbl>, HEI2020_SATFAT <dbl>, SDMVPSU <dbl>,
## #   SDMVSTRA <dbl>, WTDR2D <dbl>
…
## The default food codes for coffee from 17-18 FNDDS file is used.

## The default food codes for cranberry from 17-18 FNDDS file is used.

## The default food codes for fermented dairy from 17-18 FNDDS file is used.

## The default food codes for green tea from 17-18 FNDDS file is used.

## The default food codes for soybean from 17-18 FNDDS file is used.

## Calculating DI_GM index using day 1 data...

## Reminder: this DI_GM index uses sex-specific medians to rank participants' food/drink serving sizes and then calculate DI_GM component scores, which may generate results that are specific to your study population but not comparable to other populations.

## # A tibble: 7,483 × 17
##     SEQN RIAGENDR DI_GM_TOTAL DI_GM_AVOCADO DI_GM_BROCCOLI DI_GM_CHICKPEA
##    <dbl>    <dbl>       <dbl>         <dbl>          <dbl>          <dbl>
##  1 93704        1           4             0              0              0
##  2 93705        2           5             0              0              0
##  3 93706        1           3             0              0              0
##  4 93707        1           3             0              0              0
##  5 93708        2           5             0              0              0
##  6 93710        2           5             0              1              0
##  7 93711        1           6             0              0              0
##  8 93712        1           4             0              0              0
##  9 93713        1           4             0              0              0
## 10 93714        2           5             0              0              0
## # ℹ 7,473 more rows
## # ℹ 11 more variables: DI_GM_COFFEE <dbl>, DI_GM_CRANBERRY <dbl>,
## #   DI_GM_FERMENTED_DAIRY <dbl>, DI_GM_FIBER <dbl>, DI_GM_GREEN_TEA <dbl>,
## #   DI_GM_SOYBEAN <dbl>, DI_GM_WHOLE_GRAIN <dbl>,
## #   DI_GM_TOTAL_FAT_PERCENTAGE <dbl>, DI_GM_PROCESSED_MEAT <dbl>,
## #   DI_GM_RED_MEAT <dbl>, DI_GM_REFINED_GRAIN <dbl>
…
## The default food codes for coffee from 17-18 FNDDS file is used.

## The default food codes for cranberry from 17-18 FNDDS file is used.

## The default food codes for fermented dairy from 17-18 FNDDS file is used.

## The default food codes for green tea from 17-18 FNDDS file is used.

## The default food codes for soybean from 17-18 FNDDS file is used.

## Calculating DI_GM index using day 2 data...

## Reminder: this DI_GM index uses sex-specific medians to rank participants' food/drink serving sizes and then calculate DI_GM component scores, which may generate results that are specific to your study population but not comparable to other populations.

## # A tibble: 6,500 × 17
##     SEQN RIAGENDR DI_GM_TOTAL DI_GM_AVOCADO DI_GM_BROCCOLI DI_GM_CHICKPEA
##    <dbl>    <dbl>       <dbl>         <dbl>          <dbl>          <dbl>
##  1 93704        1           4             0              0              0
##  2 93705        2           4             0              0              0
##  3 93707        1           3             0              0              0
##  4 93708        2           3             0              0              0
##  5 93710        2           2             0              0              0
##  6 93711        1           4             0              0              0
##  7 93712        1           3             0              0              0
##  8 93713        1           6             0              0              0
##  9 93714        2           3             0              0              0
## 10 93715        1           3             0              0              0
## # ℹ 6,490 more rows
## # ℹ 11 more variables: DI_GM_COFFEE <dbl>, DI_GM_CRANBERRY <dbl>,
## #   DI_GM_FERMENTED_DAIRY <dbl>, DI_GM_FIBER <dbl>, DI_GM_GREEN_TEA <dbl>,
## #   DI_GM_SOYBEAN <dbl>, DI_GM_WHOLE_GRAIN <dbl>,
## #   DI_GM_TOTAL_FAT_PERCENTAGE <dbl>, DI_GM_PROCESSED_MEAT <dbl>,
## #   DI_GM_RED_MEAT <dbl>, DI_GM_REFINED_GRAIN <dbl>
…
## The default food codes for fermented dairy from 17-18 FNDDS file is used.

## The default food codes for green tea from 17-18 FNDDS file is used.

## The default food codes for soybean from 17-18 FNDDS file is used.

## Calculating DI_GM index using day 1 data...

## Reminder: this DI_GM index uses sex-specific medians to rank participants' food/drink serving sizes and then calculate DI_GM component scores, which may generate results that are specific to your study population but not comparable to other populations.

## Calculating DI_GM index using day 2 data...

## Reminder: this DI_GM index uses sex-specific medians to rank participants' food/drink serving sizes and then calculate DI_GM component scores, which may generate results that are specific to your study population but not comparable to other populations.

## # A tibble: 6,488 × 17
##     SEQN RIAGENDR DI_GM_TOTAL DI_GM_AVOCADO DI_GM_BROCCOLI DI_GM_CHICKPEA
##    <dbl>    <dbl>       <dbl>         <dbl>          <dbl>          <dbl>
##  1 93704        1         4               0            0                0
##  2 93705        2         4.5             0            0                0
##  3 93707        1         3               0            0                0
##  4 93708        2         4               0            0                0
##  5 93710        2         3.5             0            0.5              0
##  6 93711        1         5               0            0                0
##  7 93712        1         3.5             0            0                0
##  8 93713        1         5               0            0                0
##  9 93714        2         4               0            0                0
## 10 93715        1         3               0            0                0
## # ℹ 6,478 more rows
## # ℹ 11 more variables: DI_GM_COFFEE <dbl>, DI_GM_CRANBERRY <dbl>,
## #   DI_GM_FERMENTED_DAIRY <dbl>, DI_GM_FIBER <dbl>, DI_GM_GREEN_TEA <dbl>,
## #   DI_GM_SOYBEAN <dbl>, DI_GM_WHOLE_GRAIN <dbl>,
## #   DI_GM_TOTAL_FAT_PERCENTAGE <dbl>, DI_GM_PROCESSED_MEAT <dbl>,
## #   DI_GM_RED_MEAT <dbl>, DI_GM_REFINED_GRAIN <dbl>
…
## The default food codes for coffee from 17-18 FNDDS file is used.

## The default food codes for cranberry from 17-18 FNDDS file is used.

## The default food codes for fermented dairy from 17-18 FNDDS file is used.

## The default food codes for green tea from 17-18 FNDDS file is used.

## The default food codes for soybean from 17-18 FNDDS file is used.

## Calculating the DI_GM total and component scores for the first day data...

## Reminder: this DI_GM index uses sex-specific medians to rank participants' food/drink serving sizes and then calculate DI_GM component scores, which may generate results that are specific to your study population but not comparable to other populations.

## # A tibble: 8,272 × 17
##     SEQN RIAGENDR DI_GM_TOTAL DI_GM_AVOCADO DI_GM_BROCCOLI DI_GM_CHICKPEA
##    <dbl>    <dbl>       <dbl>         <dbl>          <dbl>          <dbl>
##  1 21005        1           4             0              0              0
##  2 21006        2           3             0              0              0
##  3 21007        2           2             0              0              0
##  4 21008        1           1             0              0              0
##  5 21009        1           5             0              0              0
##  6 21010        2           4             0              0              0
##  7 21012        1           3             0              0              0
##  8 21013        2           2             0              0              0
##  9 21014        1           5             0              0              0
## 10 21015        1           7             0              0              0
## # ℹ 8,262 more rows
## # ℹ 11 more variables: DI_GM_COFFEE <dbl>, DI_GM_CRANBERRY <dbl>,
## #   DI_GM_FERMENTED_DAIRY <dbl>, DI_GM_FIBER <dbl>, DI_GM_GREEN_TEA <dbl>,
## #   DI_GM_SOYBEAN <dbl>, DI_GM_WHOLE_GRAIN <dbl>,
## #   DI_GM_TOTAL_FAT_PERCENTAGE <dbl>, DI_GM_PROCESSED_MEAT <dbl>,
## #   DI_GM_RED_MEAT <dbl>, DI_GM_REFINED_GRAIN <dbl>
…
## The default food codes for coffee from 17-18 FNDDS file is used.

## The default food codes for cranberry from 17-18 FNDDS file is used.

## The default food codes for fermented dairy from 17-18 FNDDS file is used.

## The default food codes for green tea from 17-18 FNDDS file is used.

## The default food codes for soybean from 17-18 FNDDS file is used.

## Calculating the DI_GM total and component scores for the second day data...

## Reminder: this DI_GM index uses sex-specific medians to rank participants' food/drink serving sizes and then calculate DI_GM component scores, which may generate results that are specific to your study population but not comparable to other populations.

## # A tibble: 7,648 × 17
##     SEQN RIAGENDR DI_GM_TOTAL DI_GM_AVOCADO DI_GM_BROCCOLI DI_GM_CHICKPEA
##    <dbl>    <dbl>       <dbl>         <dbl>          <dbl>          <dbl>
##  1 21005        1           2             0              0              0
##  2 21006        2           3             0              0              0
##  3 21007        2           2             0              0              0
##  4 21008        1           3             0              0              0
##  5 21009        1           4             0              0              0
##  6 21010        2           5             0              0              0
##  7 21012        1           3             0              0              0
##  8 21013        2           3             0              0              0
##  9 21014        1           4             0              0              0
## 10 21015        1           6             0              0              0
## # ℹ 7,638 more rows
## # ℹ 11 more variables: DI_GM_COFFEE <dbl>, DI_GM_CRANBERRY <dbl>,
## #   DI_GM_FERMENTED_DAIRY <dbl>, DI_GM_FIBER <dbl>, DI_GM_GREEN_TEA <dbl>,
## #   DI_GM_SOYBEAN <dbl>, DI_GM_WHOLE_GRAIN <dbl>,
## #   DI_GM_TOTAL_FAT_PERCENTAGE <dbl>, DI_GM_PROCESSED_MEAT <dbl>,
## #   DI_GM_RED_MEAT <dbl>, DI_GM_REFINED_GRAIN <dbl>
…
## The default food codes for fermented dairy from 17-18 FNDDS file is used.

## The default food codes for green tea from 17-18 FNDDS file is used.

## The default food codes for soybean from 17-18 FNDDS file is used.

## Calculating the DI_GM total and component scores for the first day data...

## Reminder: this DI_GM index uses sex-specific medians to rank participants' food/drink serving sizes and then calculate DI_GM component scores, which may generate results that are specific to your study population but not comparable to other populations.

## Calculating the DI_GM total and component scores for the second day data...

## Reminder: this DI_GM index uses sex-specific medians to rank participants' food/drink serving sizes and then calculate DI_GM component scores, which may generate results that are specific to your study population but not comparable to other populations.

## # A tibble: 7,647 × 17
##     SEQN RIAGENDR DI_GM_TOTAL DI_GM_AVOCADO DI_GM_BROCCOLI DI_GM_CHICKPEA
##    <dbl>    <dbl>       <dbl>         <dbl>          <dbl>          <dbl>
##  1 21005        1         3               0              0              0
##  2 21006        2         3               0              0              0
##  3 21007        2         2               0              0              0
##  4 21008        1         2               0              0              0
##  5 21009        1         4.5             0              0              0
##  6 21010        2         4.5             0              0              0
##  7 21012        1         3               0              0              0
##  8 21013        2         2.5             0              0              0
##  9 21014        1         4.5             0              0              0
## 10 21015        1         6.5             0              0              0
## # ℹ 7,637 more rows
## # ℹ 11 more variables: DI_GM_COFFEE <dbl>, DI_GM_CRANBERRY <dbl>,
## #   DI_GM_FERMENTED_DAIRY <dbl>, DI_GM_FIBER <dbl>, DI_GM_GREEN_TEA <dbl>,
## #   DI_GM_SOYBEAN <dbl>, DI_GM_WHOLE_GRAIN <dbl>,
## #   DI_GM_TOTAL_FAT_PERCENTAGE <dbl>, DI_GM_PROCESSED_MEAT <dbl>,
## #   DI_GM_RED_MEAT <dbl>, DI_GM_REFINED_GRAIN <dbl>
…
## VITD is included in the calculation in the first day of NHANES data.

## VITD is included in the calculation in the second day of NHANES data.

## Reminder: This function does not use all the original DII variables. Eugenol, trans fat, turmeric, Green/black tea, Rosemary are not included.

## Day 1 and Day 2 data are used for the calculation.

## Note: Flavonoid data is only available for NHANES 2007-2010 and 2017-2018.

## # A tibble: 6,174 × 42
##     SEQN DII_ALL DII_NOETOH    ALCOHOL  VITB12    VITB6 BCAROTENE CAFFEINE
##    <dbl>   <dbl>      <dbl>      <dbl>   <dbl>    <dbl>     <dbl>    <dbl>
##  1 93704   5.81       5.53   0.278     -0.0263  0.0738      0.560   0.0849
##  2 93705   5.35       5.07   0.278     -0.0942  0.305       0.223   0.0833
##  3 93707   6.31       6.03   0.278     -0.0427  0.0267      0.564   0.0849
##  4 93708   5.81       5.53   0.278     -0.0721  0.216       0.451   0.0849
##  5 93711  -0.139     -0.139 -0.0000238 -0.0578 -0.185       0.223   0.0828
##  6 93712   2.90       2.62   0.278      0.0207 -0.329       0.534   0.0845
##  7 93713   2.13       1.85   0.278     -0.0477 -0.140       0.274   0.0826
##  8 93714   5.95       5.67   0.278     -0.0601  0.00904     0.561   0.0846
##  9 93715   7.07       6.79   0.278     -0.0745  0.309       0.562   0.0824
## 10 93716   0.662      0.384  0.278      0.0245 -0.357      -0.237   0.0844
## # ℹ 6,164 more rows
## # ℹ 34 more variables: CARB <dbl>, CHOLES <dbl>, KCAL <dbl>, TOTALFAT <dbl>,
## #   FIBER <dbl>, FOLICACID <dbl>, IRON <dbl>, MG <dbl>, MUFA <dbl>,
## #   NIACIN <dbl>, N3FAT <dbl>, N6FAT <dbl>, PROTEIN <dbl>, PUFA <dbl>,
## #   RIBOFLAVIN <dbl>, SATFAT <dbl>, SE <dbl>, THIAMIN <dbl>, VITA <dbl>,
## #   VITC <dbl>, VITE <dbl>, ZN <dbl>, VITD <dbl>, GARLIC <dbl>, GINGER <dbl>,
## #   ONION <dbl>, FLA3OL <dbl>, FLAVONES <dbl>, FLAVONOLS <dbl>, …
…
