Validation • dietaryindex
…
# Save the result
write_csv(DII_VALIDATION_RESULT_FINAL, "DII_validation_result.csv")

Use dietaryindex to calculate HEI2015 using the NHANES 2017-2018
data (n=7122).

data("NHANES_20172018")

head(NHANES_20172018)

## $FPED
## # A tibble: 8,704 × 51
##     SEQN RIAGENDR RIDAGEYR RIDRETH3 SDMVPSU SDMVSTRA INDFMIN2 INDFMPIR WTDRD1
##    <dbl>    <dbl>    <dbl>    <dbl>   <dbl>    <dbl>    <dbl>    <dbl>  <dbl>
##  1 93703        2        2        6       2      145       15     5        0 
##  2 93704        1        2        3       1      143       15     5    81714.
##  3 93705        2       66        4       2      145        3     0.82  7186.
##  4 93706        1       18        6       2      134       NA    NA     6464.
##  5 93707        1       13        7       1      138       10     1.88 15334.
##  6 93708        2       66        6       2      138        6     1.63 10826.
##  7 93709        2       75        4       1      136        2     0.41     0 
##  8 93710        2        0        3       1      134       15     4.9   8616.
##  9 93711        1       56        6       2      134       15     5     9098.
## 10 93712        1       18        1       2      147        4     0.76 60947.
## # ℹ 8,694 more rows
## # ℹ 42 more variables: WTDR2D <dbl>, DR1DRSTZ <dbl>, DRABF <dbl>, DRDINT <dbl>,
## #   DR1TNUMF <dbl>, DR1T_F_TOTAL <dbl>, DR1T_F_CITMLB <dbl>,
## #   DR1T_F_OTHER <dbl>, DR1T_F_JUICE <dbl>, DR1T_V_TOTAL <dbl>,
## #   DR1T_V_DRKGR <dbl>, DR1T_V_REDOR_TOTAL <dbl>, DR1T_V_REDOR_TOMATO <dbl>,
## #   DR1T_V_REDOR_OTHER <dbl>, DR1T_V_STARCHY_TOTAL <dbl>,
## #   DR1T_V_STARCHY_POTATO <dbl>, DR1T_V_STARCHY_OTHER <dbl>, …
## 
## $NUTRIENT
## # A tibble: 8,704 × 168
##     SEQN WTDRD1 WTDR2D DR1DRSTZ DR1EXMER DRABF DRDINT DR1DBIH DR1DAY DR1LANG
##    <dbl>  <dbl>  <dbl>    <dbl>    <dbl> <dbl>  <dbl>   <dbl>  <dbl>   <dbl>
##  1 93703     0     NA         5       NA    NA     NA      NA     NA      NA
##  2 93704 81714. 82443.        1       49     2      2       7      2       1
##  3 93705  7186.  5640.        1       73     2      2       5      1       1
##  4 93706  6464.     0         1       86     2      1      NA      6       1
##  5 93707 15334. 22707.        1       81     2      2      14      2       1
##  6 93708 10826. 22482.        1       73     2      2      41      7       6
##  7 93709     0     NA         5       NA    NA     NA      NA     NA      NA
##  8 93710  8616.  7185.        1       14     2      2      16      6       1
##  9 93711  9098.  8230.        1       86     2      2      13      6       1
## 10 93712 60947. 89066.        1       88     2      2      14      3       1
## # ℹ 8,694 more rows
## # ℹ 158 more variables: DR1MRESP <dbl>, DR1HELP <dbl>, DBQ095Z <dbl>,
## #   DBD100 <dbl>, DRQSPREP <dbl>, DR1STY <dbl>, DR1SKY <dbl>, DRQSDIET <dbl>,
## #   DRQSDT1 <dbl>, DRQSDT2 <dbl>, DRQSDT3 <dbl>, DRQSDT4 <dbl>, DRQSDT5 <dbl>,
## #   DRQSDT6 <dbl>, DRQSDT7 <dbl>, DRQSDT8 <dbl>, DRQSDT9 <dbl>, DRQSDT10 <dbl>,
## #   DRQSDT11 <dbl>, DRQSDT12 <dbl>, DRQSDT91 <dbl>, DR1TNUMF <dbl>,
## #   DR1TKCAL <dbl>, DR1TPROT <dbl>, DR1TCARB <dbl>, DR1TSUGR <dbl>, …
## 
## $DEMO
## # A tibble: 9,254 × 46
##     SEQN SDDSRVYR RIDSTATR RIAGENDR RIDAGEYR RIDAGEMN RIDRETH1 RIDRETH3 RIDEXMON
##    <dbl>    <dbl>    <dbl>    <dbl>    <dbl>    <dbl>    <dbl>    <dbl>    <dbl>
##  1 93703       10        2        2        2       NA        5        6        2
##  2 93704       10        2        1        2       NA        3        3        1
##  3 93705       10        2        2       66       NA        4        4        2
##  4 93706       10        2        1       18       NA        5        6        2
##  5 93707       10        2        1       13       NA        5        7        2
##  6 93708       10        2        2       66       NA        5        6        2
##  7 93709       10        2        2       75       NA        4        4        1
##  8 93710       10        2        2        0       11        3        3        2
##  9 93711       10        2        1       56       NA        5        6        2
## 10 93712       10        2        1       18       NA        1        1        2
## # ℹ 9,244 more rows
## # ℹ 37 more variables: RIDEXAGM <dbl>, DMQMILIZ <dbl>, DMQADFC <dbl>,
## #   DMDBORN4 <dbl>, DMDCITZN <dbl>, DMDYRSUS <dbl>, DMDEDUC3 <dbl>,
## #   DMDEDUC2 <dbl>, DMDMARTL <dbl>, RIDEXPRG <dbl>, SIALANG <dbl>,
## #   SIAPROXY <dbl>, SIAINTRP <dbl>, FIALANG <dbl>, FIAPROXY <dbl>,
## #   FIAINTRP <dbl>, MIALANG <dbl>, MIAPROXY <dbl>, MIAINTRP <dbl>,
## #   AIALANGA <dbl>, DMDHHSIZ <dbl>, DMDFMSIZ <dbl>, DMDHHSZA <dbl>, …
## 
## $NUTRIENT_IND
## # A tibble: 112,683 × 84
##     SEQN WTDRD1 WTDR2D DR1ILINE DR1DRSTZ DR1EXMER DRABF DRDINT DR1DBIH DR1DAY
##    <dbl>  <dbl>  <dbl>    <dbl>    <dbl>    <dbl> <dbl>  <dbl>   <dbl>  <dbl>
##  1 93704 81714. 82443.        1        1       49     2      2       7      2
##  2 93704 81714. 82443.        2        1       49     2      2       7      2
##  3 93704 81714. 82443.        3        1       49     2      2       7      2
##  4 93704 81714. 82443.        4        1       49     2      2       7      2
##  5 93704 81714. 82443.        5        1       49     2      2       7      2
##  6 93704 81714. 82443.        6        1       49     2      2       7      2
##  7 93704 81714. 82443.        7        1       49     2      2       7      2
##  8 93704 81714. 82443.        8        1       49     2      2       7      2
##  9 93704 81714. 82443.        9        1       49     2      2       7      2
## 10 93704 81714. 82443.       10        1       49     2      2       7      2
## # ℹ 112,673 more rows
## # ℹ 74 more variables: DR1LANG <dbl>, DR1CCMNM <dbl>, DR1CCMTX <dbl>,
## #   DR1_020 <time>, DR1_030Z <dbl>, DR1FS <dbl>, DR1_040Z <dbl>,
## #   DR1IFDCD <dbl>, DR1IGRMS <dbl>, DR1IKCAL <dbl>, DR1IPROT <dbl>,
## #   DR1ICARB <dbl>, DR1ISUGR <dbl>, DR1IFIBE <dbl>, DR1ITFAT <dbl>,
## #   DR1ISFAT <dbl>, DR1IMFAT <dbl>, DR1IPFAT <dbl>, DR1ICHOL <dbl>,
## #   DR1IATOC <dbl>, DR1IATOA <dbl>, DR1IRET <dbl>, DR1IVARA <dbl>, …
## 
## $FPED_IND
## # A tibble: 112,683 × 55
##     SEQN RIAGENDR RIDAGEYR RIDRETH3 SDMVPSU SDMVSTRA INDFMIN2 INDFMPIR WTDRD1
##    <dbl>    <dbl>    <dbl>    <dbl>   <dbl>    <dbl>    <dbl>    <dbl>  <dbl>
##  1 93704        1        2        3       1      143       15        5 81714.
##  2 93704        1        2        3       1      143       15        5 81714.
##  3 93704        1        2        3       1      143       15        5 81714.
##  4 93704        1        2        3       1      143       15        5 81714.
##  5 93704        1        2        3       1      143       15        5 81714.
##  6 93704        1        2        3       1      143       15        5 81714.
##  7 93704        1        2        3       1      143       15        5 81714.
##  8 93704        1        2        3       1      143       15        5 81714.
##  9 93704        1        2        3       1      143       15        5 81714.
## 10 93704        1        2        3       1      143       15        5 81714.
## # ℹ 112,673 more rows
## # ℹ 46 more variables: WTDR2D <dbl>, DR1DRSTZ <dbl>, DRABF <dbl>, DRDINT <dbl>,
## #   DR1TNUMF <dbl>, DR1ILINE <dbl>, DR1IFDCD <dbl>, DR1IGRMS <dbl>,
## #   DESCRIPTION <chr>, DR1I_F_TOTAL <dbl>, DR1I_F_CITMLB <dbl>,
## #   DR1I_F_OTHER <dbl>, DR1I_F_JUICE <dbl>, DR1I_V_TOTAL <dbl>,
## #   DR1I_V_DRKGR <dbl>, DR1I_V_REDOR_TOTAL <dbl>, DR1I_V_REDOR_TOMATO <dbl>,
## #   DR1I_V_REDOR_OTHER <dbl>, DR1I_V_STARCHY_TOTAL <dbl>, …
## 
## $FPED2
## # A tibble: 8,704 × 51
##     SEQN RIAGENDR RIDAGEYR RIDRETH3 SDMVPSU SDMVSTRA INDFMIN2 INDFMPIR WTDRD1
##    <dbl>    <dbl>    <dbl>    <dbl>   <dbl>    <dbl>    <dbl>    <dbl>  <dbl>
##  1 93703        2        2        6       2      145       15     5        0 
##  2 93704        1        2        3       1      143       15     5    81714.
##  3 93705        2       66        4       2      145        3     0.82  7186.
##  4 93706        1       18        6       2      134       NA    NA     6464.
##  5 93707        1       13        7       1      138       10     1.88 15334.
##  6 93708        2       66        6       2      138        6     1.63 10826.
##  7 93709        2       75        4       1      136        2     0.41     0 
##  8 93710        2        0        3       1      134       15     4.9   8616.
##  9 93711        1       56        6       2      134       15     5     9098.
## 10 93712        1       18        1       2      147        4     0.76 60947.
## # ℹ 8,694 more rows
## # ℹ 42 more variables: WTDR2D <dbl>, DR2DRSTZ <dbl>, DRABF <dbl>, DRDINT <dbl>,
## #   DR2TNUMF <dbl>, DR2T_F_TOTAL <dbl>, DR2T_F_CITMLB <dbl>,
## #   DR2T_F_OTHER <dbl>, DR2T_F_JUICE <dbl>, DR2T_V_TOTAL <dbl>,
## #   DR2T_V_DRKGR <dbl>, DR2T_V_REDOR_TOTAL <dbl>, DR2T_V_REDOR_TOMATO <dbl>,
## #   DR2T_V_REDOR_OTHER <dbl>, DR2T_V_STARCHY_TOTAL <dbl>,
## #   DR2T_V_STARCHY_POTATO <dbl>, DR2T_V_STARCHY_OTHER <dbl>, …
…
