DI_GM_NHANES_MPED — DI_GM_NHANES_MPED • dietaryindex
…
data("NHANES_20032004")
DI_GM_NHANES_MPED(MPED_PER_100_GRAM_PATH = NHANES_20032004$MPED_PER_100_GRAM, WJFRT = NHANES_20032004$WJFRT, NUTRIENT_PATH = NHANES_20032004$NUTRIENT, NUTRIENT_IND_PATH = NHANES_20032004$NUTRIENT_IND, DEMO_PATH = NHANES_20032004$DEMO, NUTRIENT_PATH2 = NHANES_20032004$NUTRIENT2, NUTRIENT_IND_PATH2 = NHANES_20032004$NUTRIENT_IND2)
#> The default food codes for avocado from 17-18 FNDDS file is used.
#> The default food codes for broccoli from 17-18 FNDDS file is used.
#> The default food codes for chickpea from 17-18 FNDDS file is used.
#> The default food codes for coffee from 17-18 FNDDS file is used.
#> The default food codes for cranberry from 17-18 FNDDS file is used.
#> The default food codes for fermented dairy from 17-18 FNDDS file is used.
#> The default food codes for green tea from 17-18 FNDDS file is used.
#> The default food codes for soybean from 17-18 FNDDS file is used.
#> Calculating the DI_GM total and component scores for the first day data...
#> Reminder: this DI_GM index uses sex-specific medians to rank participants' food/drink serving sizes and then calculate DI_GM component scores, which may generate results that are specific to your study population but not comparable to other populations.
#> Calculating the DI_GM total and component scores for the second day data...
#> Reminder: this DI_GM index uses sex-specific medians to rank participants' food/drink serving sizes and then calculate DI_GM component scores, which may generate results that are specific to your study population but not comparable to other populations.
#> # A tibble: 7,647 × 17
#>     SEQN RIAGENDR DI_GM_TOTAL DI_GM_AVOCADO DI_GM_BROCCOLI DI_GM_CHICKPEA
#>    <dbl>    <dbl>       <dbl>         <dbl>          <dbl>          <dbl>
#>  1 21005        1         3               0              0              0
#>  2 21006        2         3               0              0              0
#>  3 21007        2         2               0              0              0
#>  4 21008        1         2               0              0              0
#>  5 21009        1         4.5             0              0              0
#>  6 21010        2         4.5             0              0              0
#>  7 21012        1         3               0              0              0
#>  8 21013        2         2.5             0              0              0
#>  9 21014        1         4.5             0              0              0
#> 10 21015        1         6.5             0              0              0
#> # ℹ 7,637 more rows
#> # ℹ 11 more variables: DI_GM_COFFEE <dbl>, DI_GM_CRANBERRY <dbl>,
#> #   DI_GM_FERMENTED_DAIRY <dbl>, DI_GM_FIBER <dbl>, DI_GM_GREEN_TEA <dbl>,
#> #   DI_GM_SOYBEAN <dbl>, DI_GM_WHOLE_GRAIN <dbl>,
#> #   DI_GM_TOTAL_FAT_PERCENTAGE <dbl>, DI_GM_PROCESSED_MEAT <dbl>,
#> #   DI_GM_RED_MEAT <dbl>, DI_GM_REFINED_GRAIN <dbl>
…
