DII — DII • dietaryindex
…
#> Warning: Unknown or uninitialised column: `BCAROTENE_DII`.
#> Warning: Unknown or uninitialised column: `BCAROTENE_DII`.
#> Warning: Unknown or uninitialised column: `BCAROTENE_DII`.
#> Warning: Unknown or uninitialised column: `BCAROTENE_DII`.
#> Warning: Unknown or uninitialised column: `BCAROTENE_DII`.
#> Warning: Unknown or uninitialised column: `BCAROTENE_DII`.
#> Warning: Unknown or uninitialised column: `BCAROTENE_DII`.
#> Warning: Unknown or uninitialised column: `BCAROTENE_DII`.
#> Warning: Unknown or uninitialised column: `BCAROTENE_DII`.
#> Warning: Unknown or uninitialised column: `BCAROTENE_DII`.
#> Warning: Unknown or uninitialised column: `BCAROTENE_DII`.
#> Warning: Unknown or uninitialised column: `BCAROTENE_DII`.
#> Warning: Unknown or uninitialised column: `BCAROTENE_DII`.
#> Warning: Unknown or uninitialised column: `BCAROTENE_DII`.
#> # A tibble: 23 × 49
#> # Groups:   RESPONDENTID [23]
#>    RESPONDENTID DII_ALL DII_NOETOH REPEATNUM ALCOHOL_DII VITB12_DII VITB6_DII
#>           <dbl>   <dbl>      <dbl>     <dbl>       <dbl>      <dbl>     <dbl>
#>  1            1  0.0479    -0.230          1       0.278    -0.0232   -0.207 
#>  2            2  0.208     -0.0697         1       0.278    -0.0855    0.0157
#>  3            3 -0.115     -0.384          1       0.270    -0.0361   -0.348 
#>  4            4  0.0194    -0.258          1       0.278    -0.0486   -0.210 
#>  5            5  0.277      0.0425         1       0.234    -0.0760    0.119 
#>  6            6  0.448      0.170          1       0.278    -0.0949    0.265 
#>  7            7  0.348      0.0699         1       0.278    -0.0869    0.157 
#>  8            8 -0.0124    -0.286          1       0.274    -0.0574   -0.229 
#>  9            9  0.101     -0.0525         1       0.153    -0.0682    0.0157
#> 10           10  0.170     -0.108          1       0.277    -0.0297   -0.0778
#> # ℹ 13 more rows
#> # ℹ 42 more variables: BCAROTENE_DII <dbl>, CAFFEINE_DII <int>, CARB_DII <int>,
#> #   CHOLES_DII <int>, KCAL_DII <int>, EUGENOL_DII <int>, TOTALFAT_DII <int>,
#> #   FIBER_DII <int>, FOLICACID_DII <int>, GARLIC_DII <int>, GINGER_DII <int>,
#> #   IRON_DII <int>, MG_DII <int>, MUFA_DII <int>, NIACIN_DII <int>,
#> #   N3FAT_DII <int>, N6FAT_DII <int>, ONION_DII <int>, PROTEIN_DII <int>,
#> #   PUFA_DII <int>, RIBOFLAVIN_DII <int>, SAFFRON_DII <int>, …
…
