DII_NHANES_MPED — DII_NHANES_MPED • dietaryindex
…
    Examples

data("NHANES_20032004")
data("DII_OTHER_INGREDIENTS_day1")
data("DII_OTHER_INGREDIENTS_day2")
DII_NHANES_MPED(MPED_PER_100_GRAM_PATH = NHANES_20032004$MPED_PER_100_GRAM, WJFRT = NHANES_20032004$WJFRT, NUTRIENT_PATH = NHANES_20032004$NUTRIENT, NUTRIENT_IND_PATH = NHANES_20032004$NUTRIENT_IND, DEMO_PATH = NHANES_20032004$DEMO, NUTRIENT_PATH2 = NHANES_20032004$NUTRIENT2, NUTRIENT_IND_PATH2 = NHANES_20032004$NUTRIENT_IND2, OTHER_INGREDIENTS1 = DII_OTHER_INGREDIENTS_day1, OTHER_INGREDIENTS2 = DII_OTHER_INGREDIENTS_day2)
#> VITD is not included in the calculation in the first day of NHANES data.
#> It is normal to see warnings if you do not provide all arguments using DII. The algorithm will only count the arguments you enter to calculate the DII. All warnings are about the first column you don't use. For example, if you only entered alcohol, vitamin b12, and vitamin b6, all warnings would remind you that bcarotene is not found.
#> VITD is not included in the calculation in the first day of NHANES data.
#> It is normal to see warnings if you do not provide all arguments using DII. The algorithm will only count the arguments you enter to calculate the DII. All warnings are about the first column you don't use. For example, if you only entered alcohol, vitamin b12, and vitamin b6, all warnings would remind you that bcarotene is not found.
#> Reminder: This function does not use all the original DII variables. Eugenol, trans fat, turmeric, Green/black tea, Rosemary are not included.
#> Day 1 and Day 2 data are used for the calculation.
#> Note: Flavonoid data is only available for NHANES 2007-2010 and 2017-2018.
#> # A tibble: 7,647 × 48
#>     SEQN DII_ALL DII_NOETOH ALCOHOL_DII VITB12_DII VITB6_DII BCAROTENE_DII
#>    <dbl>   <dbl>      <dbl>       <dbl>      <dbl>     <dbl>         <dbl>
#>  1 21005    2.68      2.40        0.278    -0.0305   -0.107          0.555
#>  2 21006    4.76      4.48        0.278    -0.0868    0.224          0.563
#>  3 21007    4.82      4.54        0.278    -0.0904    0.277          0.540
#>  4 21008    4.28      4.00        0.278    -0.0383    0.150          0.537
#>  5 21009    1.21      0.937       0.278     0.0337   -0.293          0.528
#>  6 21010    3.34      3.61       -0.274    -0.0499    0.0303         0.563
#>  7 21012    3.23      3.51       -0.278     0.0360   -0.194          0.549
#>  8 21013    4.57      4.29        0.278    -0.0565    0.150          0.559
#>  9 21014    1.93      1.65        0.278     0.0706   -0.204          0.524
#> 10 21015    2.39      2.11        0.278    -0.0551   -0.0627         0.134
#> # ℹ 7,637 more rows
#> # ℹ 41 more variables: CAFFEINE_DII <dbl>, CARB_DII <dbl>, CHOLES_DII <dbl>,
#> #   KCAL_DII <dbl>, EUGENOL_DII <dbl>, TOTALFAT_DII <dbl>, FIBER_DII <dbl>,
#> #   FOLICACID_DII <dbl>, GARLIC_DII <dbl>, GINGER_DII <dbl>, IRON_DII <dbl>,
#> #   MG_DII <dbl>, MUFA_DII <dbl>, NIACIN_DII <dbl>, N3FAT_DII <dbl>,
#> #   N6FAT_DII <dbl>, ONION_DII <dbl>, PROTEIN_DII <dbl>, PUFA_DII <dbl>,
#> #   RIBOFLAVIN_DII <dbl>, SAFFRON_DII <dbl>, SATFAT_DII <dbl>, SE_DII <dbl>, …
…
