PHDI Calculation — PHDI • dietaryindex
…
ADDED_FAT_SAT_TRANS_SERV_PHDI
The serving size of Added saturated fats and trans fat, e.g. butter, lard, coconuts oil, palm oil, unit=percent of total kcal/day

ADDED_SUGAR_SERV_PHDI
The serving size of Added sugar, including the added sugar from all sweeteners and fruit juice, unit=percent of total kcal/day

    Value

    The PHDI index/score, PHDI and its component scores

    Examples

data("PHDI_VALIDATION")
PHDI(SERV_DATA = PHDI_VALIDATION, PHDI_VALIDATION$id, PHDI_VALIDATION$gender, PHDI_VALIDATION$TOTALKCAL_PHDI, PHDI_VALIDATION$WGRAIN_SERV_PHDI, PHDI_VALIDATION$STARCHY_VEG_SERV_PHDI, PHDI_VALIDATION$VEG_SERV_PHDI, PHDI_VALIDATION$FRT_SERV_PHDI, PHDI_VALIDATION$DAIRY_SERV_PHDI, PHDI_VALIDATION$REDPROC_MEAT_SERV_PHDI, PHDI_VALIDATION$POULTRY_SERV_PHDI, PHDI_VALIDATION$EGG_SERV_PHDI, PHDI_VALIDATION$FISH_SERV_PHDI, PHDI_VALIDATION$NUTS_SERV_PHDI, PHDI_VALIDATION$LEGUMES_SERV_PHDI, PHDI_VALIDATION$SOY_SERV_PHDI, PHDI_VALIDATION$ADDED_FAT_UNSAT_SERV_PHDI, PHDI_VALIDATION$ADDED_FAT_SAT_TRANS_SERV_PHDI, PHDI_VALIDATION$ADDED_SUGAR_SERV_PHDI)
#> # A tibble: 26 × 19
#>    RESPONDENTID GENDER PHDI_ALL TOTALKCAL_PHDI PHDI_WGRAIN PHDI_STARCHY_VEG
#>           <dbl>  <dbl>    <dbl>          <dbl>       <dbl>            <dbl>
#>  1            1      2        0           2000           0                0
#>  2            2      2        0           2000           0                0
#>  3            3      2       14           2000           1                1
#>  4            4      2       28           2000           2                2
#>  5            5      2       42           2000           3                3
#>  6            6      2       56           2000           4                4
#>  7            7      2       70           2000           5                5
#>  8            8      2       84           2000           6                6
#>  9            9      2       98           2000           7                7
#> 10           10      2      112           2000           8                8
#> # ℹ 16 more rows
#> # ℹ 13 more variables: PHDI_VEG <dbl>, PHDI_FRT <dbl>, PHDI_DAIRY <dbl>,
#> #   PHDI_REDPROC_MEAT <dbl>, PHDI_POULTRY <dbl>, PHDI_EGG <dbl>,
#> #   PHDI_FISH <dbl>, PHDI_NUTS <dbl>, PHDI_LEGUMES <dbl>, PHDI_SOY <dbl>,
#> #   PHDI_ADDED_FAT_UNSAT <dbl>, PHDI_ADDED_FAT_SAT <dbl>,
#> #   PHDI_ADDED_SUGAR <dbl>
…
